{
  "apps": [
    {
      "name": "deportes",
      "url": ""
    },
    {
      "name": "conecta",
      "url": ""
    },
    {
      "name": "envivo",
      "url": "https://a01334390.bitbucket.io/pruebas_envivo.json"
    },
    {
      "name": "adn40",
      "url": ""
    },
    {
      "name": "adn40-2020",
      "url": ""
    }
  ]
}